THSS 730 - Lab 1
…
# your code goes here

Importing data

In this project, there is a .xlsx file located in the data directory. To bring these data into your computing session, we will use the read_xlsx() function from the readxl package. To call a specific function from a specific package, use the syntax of package::function(). For example,

Code

# read in a dataset and assign it to a reasonable name
data_birth_weight <- readxl::read_xlsx("data/lowbwt.xlsx")

# print the data
data_birth_weight

# A tibble: 100 × 6
     sbp   sex   tox grmhem gestage apgar5
   <dbl> <dbl> <dbl>  <dbl>   <dbl>  <dbl>
 1    43     1     0      0      29      7
 2    51     1     0      0      31      8
 3    42     0     0      0      33      0
 4    39     0     0      0      31      8
 5    48     0     1      0      30      7
 6    31     1     0      1      25      0
 7    31     1     1      0      27      7
 8    40     0     0      0      29      9
 9    57     0     0      0      28      6
10    64     0     1      0      29      9
# ℹ 90 more rows
…
We can modify, filter, and sort data using functions mutate(), filter(), and arrange(), respectively.

mutate() is like summarize(), as it expects you to provide name-value pairs. For example, we could use mutate to convert tox into a factor:

Code

data_birth_weight_mutated <- mutate(data_birth_weight,
                                    tox = factor(tox,
                                                 levels = c(0, 1),
                                                 labels = c("No", "Yes")))

data_birth_weight_mutated

# A tibble: 100 × 6
     sbp sex   tox   grmhem gestage apgar5
   <dbl> <fct> <fct>  <dbl>   <dbl>  <dbl>
 1    43 Boy   No         0      29      7
 2    51 Boy   No         0      31      8
 3    42 Girl  No         0      33      0
 4    39 Girl  No         0      31      8
 5    48 Girl  Yes        0      30      7
 6    31 Boy   No         1      25      0
 7    31 Boy   Yes        0      27      7
 8    40 Girl  No         0      29      9
 9    57 Girl  No         0      28      6
10    64 Girl  Yes        0      29      9
# ℹ 90 more rows

filter() requires entering one or multiple conditions, and then it returns all rows of the data that satisfy the conditions.

Code

data_birth_weight_girls <- filter(data_birth_weight, sex == "Girl")

data_birth_weight_girls

# A tibble: 56 × 6
     sbp sex     tox grmhem gestage apgar5
   <dbl> <fct> <dbl>  <dbl>   <dbl>  <dbl>
 1    42 Girl      0      0      33      0
 2    39 Girl      0      0      31      8
 3    48 Girl      1      0      30      7
 4    40 Girl      0      0      29      9
 5    57 Girl      0      0      28      6
 6    64 Girl      1      0      29      9
 7    46 Girl      0      0      26      7
 8    47 Girl      0      1      30      6
 9    63 Girl      0      0      29      8
10    56 Girl      0      0      29      1
# ℹ 46 more rows

arrange() sorts your data based on whatever variables you request:

Code

data_birth_weight_girls_by_gestage <- arrange(data_birth_weight_girls, gestage)

data_birth_weight_girls_by_gestage

# A tibble: 56 × 6
     sbp sex     tox grmhem gestage apgar5
   <dbl> <fct> <dbl>  <dbl>   <dbl>  <dbl>
 1    26 Girl      0      0      23      8
 2    24 Girl      0      0      23      7
 3    49 Girl      0      0      24      5
 4    19 Girl      0      1      25      4
 5    25 Girl      0      0      25      8
 6    59 Girl      0      0      25      3
 7    48 Girl      0      0      25      5
 8    29 Girl      0      1      25      5
 9    46 Girl      0      0      26      7
10    40 Girl      0      1      26      3
# ℹ 46 more rows

Much, much more can be done with these functions, but we will save unpacking that for another lab. For now, we will finish this lab by discussing the pipe operator, aka %>%. Have you noticed that my object names became annoyingly long as I created intermediate results? For example,

Code

# first filter to girls
data_birth_weight_girls <- filter(data_birth_weight, sex == "Girl")

# then arrange by gestational age
data_birth_weight_girls_by_gestage <- arrange(data_birth_weight_girls, gestage)

data_birth_weight_girls_by_gestage

# A tibble: 56 × 6
     sbp sex     tox grmhem gestage apgar5
   <dbl> <fct> <dbl>  <dbl>   <dbl>  <dbl>
 1    26 Girl      0      0      23      8
 2    24 Girl      0      0      23      7
 3    49 Girl      0      0      24      5
 4    19 Girl      0      1      25      4
 5    25 Girl      0      0      25      8
 6    59 Girl      0      0      25      3
 7    48 Girl      0      0      25      5
 8    29 Girl      0      1      25      5
 9    46 Girl      0      0      26      7
10    40 Girl      0      1      26      3
# ℹ 46 more rows

So much text is spent on naming the intermediate results. Do we really need to even save an object called birth_weight_girls if the object we really want is a dataset that is restricted to girls and also arranged by gestational age? This is where the pipe is helpful. Pipes work in R as a way to make code more readable and direct. For example, here’s how pipes make the previous code chunk more readable:

Code

data_birth_weight_girls_by_gestage <- data_birth_weight %>% 
  # first filter to girls
  filter(sex == "Girl") %>% 
  # then arrange by gestational age
  arrange(gestage)

data_birth_weight_girls_by_gestage

# A tibble: 56 × 6
     sbp sex     tox grmhem gestage apgar5
   <dbl> <fct> <dbl>  <dbl>   <dbl>  <dbl>
 1    26 Girl      0      0      23      8
 2    24 Girl      0      0      23      7
 3    49 Girl      0      0      24      5
 4    19 Girl      0      1      25      4
 5    25 Girl      0      0      25      8
 6    59 Girl      0      0      25      3
 7    48 Girl      0      0      25      5
 8    29 Girl      0      1      25      5
 9    46 Girl      0      0      26      7
10    40 Girl      0      1      26      3
# ℹ 46 more rows
…
